Ayudantía 3
…
---

# A.- Tablas de Contingencia

En esta sección trabajaremos sobre los datos de la **National Survey of Culture and the Arts 2018** coordinada por el *National Endowment for the Arts USA* con un muestreo representativo de la población de EEUU. La muestra contiene 8609 casos y variables demográficas, socioeconómicas y de consumo cultural. En esta ocación trabajaremos con 10 de ellas.

```r
# Sintaxis
#Exploración de datos
library(tibble)
tibble(data1)
```

```
# # A tibble: 8,609 × 10
#    sexo       raza   educacion    hijes jazz  clasica opera ballet museos libros
#    <fct>      <fct>  <fct>        <dbl> <fct> <fct>   <fct> <fct>  <fct>  <fct> 
#  1 (2) Female (01) … (37) 11th g…     0 (2) … (2) No  (2) … (2) No (2) No (2) No
#  2 (2) Female (01) … (39) High s…     0 (2) … (2) No  (2) … (2) No (2) No (2) No
#  3 (2) Female (01) … (39) High s…     0 (2) … (2) No  (2) … (2) No (2) No (1) Y…
#  4 (1) Male   (01) … (46) Doctor…     1 (2) … (2) No  (2) … (2) No (2) No (2) No
#  5 (2) Female (01) … (39) High s…     0 (2) … (2) No  (2) … (2) No (2) No (2) No
#  6 (2) Female (01) … (39) High s…     0 (2) … (2) No  (2) … (2) No (2) No (1) Y…
#  7 (1) Male   (01) … (39) High s…     0 (2) … (2) No  (2) … (2) No (2) No (2) No
#  8 (1) Male   (01) … (39) High s…     0 (2) … (2) No  (2) … (2) No (2) No (2) No
#  9 (2) Female (01) … (36) 10th g…     0 (2) … (2) No  (2) … (2) No (2) No (2) No
# 10 (1) Male   (01) … (39) High s…     0 (2) … (2) No  (2) … (2) No (2) No (1) Y…
# # … with 8,599 more rows
```
…
```r
library(tibble)
```

```r
#Sintaxis
#Cargar base de datos
load("nsca2018.Rda")
tibble(data1)
```

```
# # A tibble: 8,609 × 10
#    sexo       raza   educacion    hijes jazz  clasica opera ballet museos libros
#    <fct>      <fct>  <fct>        <dbl> <fct> <fct>   <fct> <fct>  <fct>  <fct> 
#  1 (2) Female (01) … (37) 11th g…     0 (2) … (2) No  (2) … (2) No (2) No (2) No
#  2 (2) Female (01) … (39) High s…     0 (2) … (2) No  (2) … (2) No (2) No (2) No
#  3 (2) Female (01) … (39) High s…     0 (2) … (2) No  (2) … (2) No (2) No (1) Y…
#  4 (1) Male   (01) … (46) Doctor…     1 (2) … (2) No  (2) … (2) No (2) No (2) No
#  5 (2) Female (01) … (39) High s…     0 (2) … (2) No  (2) … (2) No (2) No (2) No
#  6 (2) Female (01) … (39) High s…     0 (2) … (2) No  (2) … (2) No (2) No (1) Y…
#  7 (1) Male   (01) … (39) High s…     0 (2) … (2) No  (2) … (2) No (2) No (2) No
#  8 (1) Male   (01) … (39) High s…     0 (2) … (2) No  (2) … (2) No (2) No (2) No
#  9 (2) Female (01) … (36) 10th g…     0 (2) … (2) No  (2) … (2) No (2) No (2) No
# 10 (1) Male   (01) … (39) High s…     0 (2) … (2) No  (2) … (2) No (2) No (1) Y…
# # … with 8,599 more rows
```
…
